%YAML 1.1
%TAG !u! tag:unity3d.com,2011:
--- !u!21 &2100000
Material:
  serializedVersion: 6
  m_ObjectHideFlags: 0
  m_CorrespondingSourceObject: {fileID: 0}
  m_PrefabInstance: {fileID: 0}
  m_PrefabAsset: {fileID: 0}
  m_Name: Trail4
  m_Shader: {fileID: -6465566751694194690, guid: 94156f61f72b54f408d7f9bfb9547503, type: 3}
  m_ShaderKeywords: _USEDEPTH_ON
  m_LightmapFlags: 4
  m_EnableInstancingVariants: 1
  m_DoubleSidedGI: 0
  m_CustomRenderQueue: -1
  stringTagMap: {}
  disabledShaderPasses: []
  m_SavedProperties:
    serializedVersion: 3
    m_TexEnvs:
    - _MainTex:
        m_Texture: {fileID: 2800000, guid: 4ac640d2ebb9d1c4b9273fb023e8768e, type: 3}
        m_Scale: {x: 1, y: 1}
        m_Offset: {x: 0, y: 0}
    - _Maintexture:
        m_Texture: {fileID: 2800000, guid: 4ac640d2ebb9d1c4b9273fb023e8768e, type: 3}
        m_Scale: {x: 1, y: 1}
        m_Offset: {x: 0, y: 0}
    - _MotionVector:
        m_Texture: {fileID: 0}
        m_Scale: {x: 1, y: 1}
        m_Offset: {x: 0, y: 0}
    - _Noise:
        m_Texture: {fileID: 2800000, guid: 4e3951c538fc8a647a4a10a99b480987, type: 3}
        m_Scale: {x: 4, y: 16}
        m_Offset: {x: 0, y: 0}
    - _NormalMap:
        m_Texture: {fileID: 0}
        m_Scale: {x: 1, y: 1}
        m_Offset: {x: 0, y: 0}
    - _tex3coord:
        m_Texture: {fileID: 0}
        m_Scale: {x: 1, y: 1}
        m_Offset: {x: 0, y: 0}
    - unity_Lightmaps:
        m_Texture: {fileID: 0}
        m_Scale: {x: 1, y: 1}
        m_Offset: {x: 0, y: 0}
    - unity_LightmapsInd:
        m_Texture: {fileID: 0}
        m_Scale: {x: 1, y: 1}
        m_Offset: {x: 0, y: 0}
    - unity_ShadowMasks:
        m_Texture: {fileID: 0}
        m_Scale: {x: 1, y: 1}
        m_Offset: {x: 0, y: 0}
    m_Floats:
    - _Cutoff: 0.5
    - _Depthpower: 0.5
    - _Emission: 2
    - _FinalEmission: 1
    - _InvFade: 3
    - _Mobile: 0
    - _MotionAmount: 0
    - _Opacity: 1
    - _Softparticlesfactor: 1
    - _Usedepth: 1
    - __dirty: 1
    m_Colors:
    - _Color: {r: 1, g: 1, b: 1, a: 1}
    - _GlowColor: {r: 1, g: 1, b: 0, a: 1}
    - _NoiseTiling: {r: 1, g: 1, b: 0, a: 0}
    - _NoisespeedXYNoisepowerZGlowpowerW: {r: 0.314, g: 0.427, b: 0.001, a: 4}
    - _NoisespeedXYpowerZ: {r: 0.314, g: 0.427, b: 0.001, a: 0}
    - _TilingXY: {r: 1, g: 1, b: 0, a: 0}
    - _TintColor: {r: 0.4044118, g: 0.4044118, b: 0.4044118, a: 0.5019608}
  m_BuildTextureStacks: []
